<!-- ...................................................................... -->
<!-- DocBook additional general entities V4.2b1 ............................. -->

<!-- Copyright 1992-2000 HaL Computer Systems, Inc.,
     O'Reilly & Associates, Inc., ArborText, Inc., Fujitsu Software
     Corporation, and the Organization for the Advancement of
     Structured Information Standards (OASIS).

     In DTD driver files referring to this module, please use an entity
     declaration that uses the public identifier shown below:

     <!ENTITY % dbgenent PUBLIC
     "-//OASIS//ENTITIES DocBook Additional General Entities V4.2b1//EN"
     "dbgenent.mod">
     %dbgenent;
-->

<!-- File dbgenent.mod .................................................... -->

<!-- You can edit this file to add the following:

     o General entity declarations of any kind.  For example:

       <!ENTITY productname "WinWidget">          (small boilerplate)
       <!ENTITY legal-notice SYSTEM "notice.sgm"> (large boilerplate)

     o Notation declarations.  For example:

       <!NOTATION chicken-scratch SYSTEM>

     o Declarations for and references to external parameter entities
       containing collections of any of the above.  For example:

       <!ENTITY % all-titles PUBLIC "-//DocTools//ELEMENTS Book Titles//EN"
           "booktitles.ent">
       %all-titles;
-->

<!-- End of DocBook additional general entities V4.2b1 ...................... -->
<!-- ...................................................................... -->
